module gitlab.com/bishe-projects/middle_comment_api

go 1.18

require (
	github.com/cloudwego/kitex v0.4.2
	github.com/gin-gonic/gin v1.8.1
	gitlab.com/bishe-projects/common_utils v0.0.0-20221016170133-3b20b8ae1b15
	gitlab.com/bishe-projects/service_kitex_gen v0.0.0-20221129150905-fcc16726e3be
)

require (
	github.com/apache/thrift v0.17.0 // indirect
	github.com/bytedance/gopkg v0.0.0-20220531084716-665b4f21126f // indirect
	github.com/chenzhuoyu/iasm v0.0.0-20220818063314-28c361dae733 // indirect
	github.com/choleraehyq/pid v0.0.15 // indirect
	github.com/cloudwego/fastpb v0.0.2 // indirect
	github.com/cloudwego/frugal v0.1.3 // indirect
	github.com/cloudwego/netpoll v0.2.6 // indirect
	github.com/cloudwego/thriftgo v0.2.1 // indirect
	github.com/gin-contrib/sse v0.1.0 // indirect
	github.com/go-playground/locales v0.14.0 // indirect
	github.com/go-playground/universal-translator v0.18.0 // indirect
	github.com/go-playground/validator/v10 v10.11.1 // indirect
	github.com/goccy/go-json v0.9.11 // indirect
	github.com/golang-jwt/jwt/v4 v4.4.2 // indirect
	github.com/golang/protobuf v1.5.2 // indirect
	github.com/jhump/protoreflect v1.8.2 // indirect
	github.com/json-iterator/go v1.1.12 // indirect
	github.com/leodido/go-urn v1.2.1 // indirect
	github.com/mattn/go-isatty v0.0.16 // indirect
	github.com/modern-go/concurrent v0.0.0-20180306012644-bacd9c7ef1dd // indirect
	github.com/modern-go/reflect2 v1.0.2 // indirect
	github.com/oleiade/lane v1.0.1 // indirect
	github.com/pelletier/go-toml/v2 v2.0.6 // indirect
	github.com/tidwall/gjson v1.9.3 // indirect
	github.com/tidwall/match v1.1.1 // indirect
	github.com/tidwall/pretty v1.2.0 // indirect
	github.com/ugorji/go/codec v1.2.7 // indirect
	golang.org/x/arch v0.0.0-20220722155209-00200b7164a7 // indirect
	golang.org/x/crypto v0.3.0 // indirect
	golang.org/x/net v0.2.0 // indirect
	golang.org/x/sync v0.0.0-20210220032951-036812b2e83c // indirect
	golang.org/x/sys v0.2.0 // indirect
	golang.org/x/text v0.4.0 // indirect
	google.golang.org/genproto v0.0.0-20210513213006-bf773b8c8384 // indirect
	google.golang.org/protobuf v1.28.1 // indirect
	gopkg.in/yaml.v2 v2.4.0 // indirect
	gopkg.in/yaml.v3 v3.0.1 // indirect
)

replace github.com/apache/thrift => github.com/apache/thrift v0.13.0
